{
    "appName":"Brossard App Builder",
    "purchaseCode":"b59ec4a0-9904-413d-a95f-f5ca36570c91",
    "adminEmail":"brossarddesign@gmail.com",
    "firebaseConfig":{
        "apiKey": "AIzaSyC4Y0o9V9yjRV3Fu7_twRdZmEo7M4-buyY",
        "authDomain": "appbuilder-20827.firebaseapp.com",
        "databaseURL": "https://appbuilder-20827.firebaseio.com",
        "projectId": "appbuilder-20827",
        "storageBucket": "appbuilder-20827.appspot.com",
        "messagingSenderId": "737079236780",
        "appId": "1:737079236780:web:6ef91a305c32db3a63a709"
    },
    "pricing" : {
        "plans" : [{
          "allowdQty" : 1,
          "features" : ["Make 1 app","Docs only"],
          "id" : 1,
          "image" : "https://i.postimg.cc/w1yx6scH/icon-paper2.png",
          "name" : "Trial Pack",
          "price" : "0$ / m"
        }, {
          "allowdQty" : 0,
          "features" : ["You want more! Contact Us","Custom Development"],
          "id" : 2,
          "image" : "https://i.postimg.cc/678MbBXM/plane.png",
          "name" : "Custom Pack",
          "price" : "0$ / m"
        }],
        "vendorID" : 2727
    },
    "SMTP":{
        "serverName":"mail.brossarddesign.com",
        "username":"direction@brossarddesign.com",
        "password":"46!X0lsEvXdF",
        "port":465
    }

}